{
  "type": "service_account",
  "project_id": "flutterboilerplate-8a5c4",
  "private_key_id": "1b43e746303d5d18f266301a46c2bf07fb659711",
  "private_key": "-----BEGIN PRIVATE KEY-----\nMIIEvQIBADANBgkqhkiG9w0BAQEFAASCBKcwggSjAgEAAoIBAQC2OTo+orv3jWRD\n+eCyt6LlBou9W5O4BnvXyHjkx6ww+ifJAMyMkZNGU+IpZbazOHSPwhS7jIoTYovS\n1dH8Sl7Y2P7CfF6x8h015wyA1og4X0SJqmVoKCTVaJ/92YpATNPT7qVepUexG1Fu\ne27IlqZ17TyERxpv3boDCgCsMHUJN2wEirR36i0QNgYZn5aZck8zq3HqpAs62kW0\nXZLL2/fd8QM1nUwE5K4vNzTgJ4lm9c8TVFNaZAusXFz0JsoEmu+DYLxGiKIZ7Wv/\ngYdhy86jcepW2mF4f6u+nmYHyKs6tItfrQ9ZsMMWN641VBtr/lTE/RgpTbGDOqWe\nSCuVWjRhAgMBAAECggEAAyvDZKUDbzkutyvbThLZ3uFGd93mx/lVaP2uJGGI4JyO\nyg21cYYEPYFeznR8mZlsNlb00kdtnO0eZKWnwvuWk1CR3NeqFG/DlD08O4b4LX5z\naG+eloGZ0/yfSZ0iLbCkkEPfLPKkeOuSNwFm/e64sHVHk//ygOM3bh97v+NTOwz8\nQ6hS1pVC1E9S2foSP8jYgzztt/FZDcxlDL/znLoKOV9MYIebGCFzxtM+kvQmBTiP\nm1Iuu3jGKVd7/gfds/7AuMwq/FrQxJSIDMHBGqu/YuEDr566OxlgP1xtoSUpUOWC\nVH/G2HjeMbF7gek+HT0owq3v11qPgcrMZ7P8UXAGAQKBgQDbpaIvqeZ5bnRlkdl/\n48xcq3/CCAqCrDZZuIAsttNuNh8L+3JcL/gQmceM+FZhqdcS2UFW1NN8ShgduTJE\nuv5CxEfjvQmmsxIEqh0CRq9M0YT9fMCl/k1sCQecbFTp9ElyALxTexiEE7FXdKGI\nkdEvcfRf2W4/283SqwpoQRovAQKBgQDUYfmfNy/YQvOM9i1Evs1nAHJLVchhHWsJ\nkW9optLtXs33qJ0G0L88el49VWGRm67b54O7LceG0FMvDPgzN4YJy1BIpLO/j3na\nnv6OITgwXPtubZ089+R5fI+XqLcQboMt6JNqQkxHsczgk4zJNRyTrRapLcnlxNGj\np9sr6ONlYQKBgFWvMaviXZR1cFbHJM/tL6XfCUHKHT+IqtMpVGcdEzHlTws/lgc8\nd0sSknP91MTYmpwxwHl9INtVlD7UJjYFtHabV2gSMJelN5w2OIbQyEXxXi384rJe\nmBlTFHMDF8UElTox60WtuYycmgwB5Zn/OFmH3MsfaRDkUFCkhLTS4MIBAoGBAIJH\nC0FgL+gfwZhBVilqRUMeof2WRFFWI1d+L/HpC0/yLLPzaUdJ+1TU10QWQMB52Dwq\nesLx5QfMeIpPEV0RfRY68idtaJlkIGI7z3hN5lK8ZrspYB+LDEp9XvOv2YOp1qvt\nk6fFvVbpOPy1ZdHy03G+5jymysc4AUS7bZU0yXBhAoGAMVLxZ9MyTcO0+1dAHT/9\nbK7Xd4S/6ELunvvAhLSgmBnZQ+xSSwH7FSxYqUtqlJYxyDCp+t8nLE9zCSSy/rWc\nwToGnr3NGEjuxMSRPiYi2w8x3L3k5MLRvbm82+EMMTB3w8pGMg62TTS6nXNaUI1c\n1pVujaVmxUuqnZqf79Tr7+w=\n-----END PRIVATE KEY-----\n",
  "client_email": "firebaseappdistribution@flutterboilerplate-8a5c4.iam.gserviceaccount.com",
  "client_id": "109933003922996129152",
  "auth_uri": "https://accounts.google.com/o/oauth2/auth",
  "token_uri": "https://oauth2.googleapis.com/token",
  "auth_provider_x509_cert_url": "https://www.googleapis.com/oauth2/v1/certs",
  "client_x509_cert_url": "https://www.googleapis.com/robot/v1/metadata/x509/firebaseappdistribution%40flutterboilerplate-8a5c4.iam.gserviceaccount.com"
}
